{
  "src_folders" : ["tests"],
  "output_folder" : "reports",
  "custom_commands_path" : "",
  "custom_assertions_path" : "",
  "page_objects_path" : ["pages"],
  "globals_path" : "",
 
  "selenium" : {
    "start_process" : true,
    "server_path" : "lib/selenium/selenium-server-standalone-3.4.0.jar",
    "start_session" : true,
    "log_path" : "",
    "host" : "127.0.0.1",
    "port" : 4444,
    "cli_args" : {
      	  "webdriver.gecko.driver" : "lib/selenium/geckodriver.exe",
		  "webdriver.chrome.driver" : "lib/selenium/chromedriver.exe"		  
    }
  },
 
  "test_settings" : {
    "default" : {
      "launch_url" : "http://localhost",
      "selenium_port"  : 4444,
      "selenium_host"  : "127.0.0.1",
      "silent": true,
      "screenshots" : {
        "enabled" : false,
        "path" : ""
      },
      "desiredCapabilities": {
        "browserName": "firefox",
        "javascriptEnabled": true,
        "acceptSslCerts": true
      }
    },
 
    "chrome" : {
      "desiredCapabilities": {
        "browserName": "chrome",
        "javascriptEnabled": true,
        "acceptSslCerts": true
      }
    }
  }
}
